March Sadness - Ryan Dean's Github Site
…
xgb_grid <- grid_latin_hypercube(
  trees(),
  tree_depth(),
  min_n(),
  loss_reduction(),
  sample_size = sample_prop(),
  finalize(mtry(), bracket_train),
  learn_rate(),
  size = 30
)

xgb_grid

## # A tibble: 30 x 7
##    trees tree_depth min_n loss_reduction sample_size  mtry   learn_rate
##    <int>      <int> <int>          <dbl>       <dbl> <int>        <dbl>
##  1  1252         14    18 0.00000000275        0.530    13 0.00000155  
##  2  1064          2     2 0.00000292           0.920     3 0.0139      
##  3    12         11    12 0.000000000690       0.372     2 0.0000000209
##  4   197          1    23 0.0224               0.572    11 0.000246    
##  5  1147          4    30 0.433                0.623     6 0.00000648  
##  6  1439         13    27 0.000000111          0.957    11 0.0000351   
##  7   819         12    16 0.000173             0.892     2 0.0000000642
##  8   269          3    27 0.000000380          0.317     9 0.00000528  
##  9   379          8    20 0.0000000167         0.128    15 0.000198    
## 10   568         15    40 0.000000997          0.279     6 0.0000000335
## # … with 20 more rows
…
collect_metrics(xgb_res)

## # A tibble: 60 x 13
##     mtry trees min_n tree_depth learn_rate loss_reduction sample_size .metric
##    <int> <int> <int>      <int>      <dbl>          <dbl>       <dbl> <chr>  
##  1    11   197    23          1   2.46e- 4   0.0224             0.572 accura…
##  2    11   197    23          1   2.46e- 4   0.0224             0.572 roc_auc
##  3     3  1064     2          2   1.39e- 2   0.00000292         0.920 accura…
##  4     3  1064     2          2   1.39e- 2   0.00000292         0.920 roc_auc
##  5     8   642    10          2   1.90e-10   0.0000000318       0.177 accura…
##  6     8   642    10          2   1.90e-10   0.0000000318       0.177 roc_auc
##  7    10   111    14          3   1.08e- 3   0.0000639          0.155 accura…
##  8    10   111    14          3   1.08e- 3   0.0000639          0.155 roc_auc
##  9     9   269    27          3   5.28e- 6   0.000000380        0.317 accura…
## 10     9   269    27          3   5.28e- 6   0.000000380        0.317 roc_auc
## # … with 50 more rows, and 5 more variables: .estimator <chr>, mean <dbl>,
## #   n <int>, std_err <dbl>, .config <chr>
…
